%YAML 1.1
%TAG !u! tag:unity3d.com,2011:
--- !u!162 &1
EditorUserSettings:
  m_ObjectHideFlags: 0
  serializedVersion: 4
  m_ConfigSettings:
    RecentlyUsedScenePath-0:
      value: 22424703114646680e0b0227036c6b19021b1d6439262f2434
      flags: 0
    RecentlyUsedScenePath-1:
      value: 22424703114646680e0b0227036c78111b12173c293a68252320092a
      flags: 0
    RecentlyUsedScenePath-2:
<<<<<<< HEAD
      value: 22424703114646680e0b0227036c73150012147b623d28393930
      flags: 0
    RecentlyUsedScenePath-3:
<<<<<<< HEAD
      value: 22424703114646680e0b0227036c731500121479623d28393930
=======
      value: 22424703114646680e0b0227036c6b19021b1d6439262f2434
=======
      value: 22424703114646680e0b0227036c73150012147b6c7968252320092a
>>>>>>> 8b655fa5e5d57f9258f691a3a4610c497afbdb94
      flags: 0
    RecentlyUsedScenePath-3:
      value: 22424703114646680e0b0227036c731500121478623d28393930
>>>>>>> ae4cde69918439085c49c2bd017c0c3627e3fdcb
      flags: 0
    RecentlyUsedScenePath-4:
      value: 22424703114646680e0b0227036c731500121479623d28393930
      flags: 0
    vcSharedLogLevel:
      value: 0d5e400f0650
      flags: 0
  m_VCAutomaticAdd: 1
  m_VCDebugCom: 0
  m_VCDebugCmd: 0
  m_VCDebugOut: 0
  m_SemanticMergeMode: 2
  m_VCShowFailedCheckout: 1
  m_VCOverwriteFailedCheckoutAssets: 1
  m_VCProjectOverlayIcons: 1
  m_VCHierarchyOverlayIcons: 1
  m_VCOtherOverlayIcons: 1
  m_VCAllowAsyncUpdate: 1
